!SESSION 2017-11-13 12:02:25.782 -----------------------------------------------
eclipse.buildId=unknown
java.version=1.7.0_11
java.vendor=Oracle Corporation
BootLoader constants: OS=win32, ARCH=x86_64, WS=win32, NL=en_US

!ENTRY org.eclipse.update.configurator 4 0 2017-11-13 12:02:25.783
!MESSAGE Could not install bundle plugins/com.lowagie.itext_1.5.4.v20080228/   Cannot import a package more than once "com.google.gson"
